{
  "appName": {
    "message": "KeyMaker",
    "description": "The name of the application"
  },
  "appShortName": {
    "message": "KeyMaker",
    "description": "The short_name (maximum of 12 characters recommended) is a short version of the app's name."
  },
  "appDescription": {
    "message": "Deterministic password generator. Never type or remember another password.",
    "description": "The description of the application"
  },
  "browserActionTitle": {
    "message": "KeyMaker",
    "description": "The title of the browser action button"
  }
}
